…
cor(results_GDP$GDP_growth_pct, results_GDP$H_incumbent_party_majorvote_pct)
cor(results_RDI$DSPIC_change_pct, results_RDI$H_incumbent_party_majorvote_pct)
cor(results_UE$UNRATE, results_UE$H_incumbent_party_majorvote_pct)

Economy and PV: Fitting a model (STEP 1 & 2)

newdf <- left_join(results_UE, results_GDP, by = 'year')
newdf <-left_join (newdf, results_RDI, by = 'year') %>%
  select('year', 'winner_party.x', 'H_incumbent_party.x', 'H_incumbent_party_majorvote_pct.x', 'quarter_cycle.x', 'UNRATE', 'GDP_growth_pct', 'DSPIC_change_pct', 'unrate_qt_total', 'DSPIC_change_qt', 'GDP_growth_qt', 'UNRATE_change') %>%
  rename('winner_party' = 'winner_party.x', 'H_incumbent_party_majorvote_pct' = 'H_incumbent_party_majorvote_pct.x', 'quarter_cycle' = 'quarter_cycle.x', 'H_incumbent_party' = 'H_incumbent_party.x')

newdf

## # A tibble: 37 × 12
##     year winner_party H_incumbent_party H_incumbent_party_… quarter_cycle UNRATE
##    <dbl> <chr>        <chr>                           <dbl>         <dbl>  <dbl>
##  1  1948 D            R                                46.6             4    3.7
##  2  1950 R            D                                49.7             4    4.2
##  3  1952 D            R                                48.8             4    3  
##  4  1954 D            D                                52.4             4    5.7
##  5  1956 D            D                                51.2             4    3.9
##  6  1958 D            D                                55.0             4    6.7
##  7  1960 D            D                                54.4             4    6.1
##  8  1962 D            D                                52.9             4    5.4
##  9  1964 D            D                                57.3             4    5.1
## 10  1966 D            D                                50.9             4    3.7
## # … with 27 more rows, and 6 more variables: GDP_growth_pct <dbl>,
## #   DSPIC_change_pct <dbl>, unrate_qt_total <dbl>, DSPIC_change_qt <dbl>,
## #   GDP_growth_qt <dbl>, UNRATE_change <dbl>
…
